Name,Sex,Age,Equipment,Division,BodyweightKg,WeightClassKg,Squat1Kg,Squat2Kg,Squat3Kg,Best3SquatKg,Bench1Kg,Bench2Kg,Bench3Kg,Best3BenchKg,Deadlift1Kg,Deadlift2Kg,Deadlift3Kg,Best3DeadliftKg,TotalKg,Event,Place,BirthDate
Megan Tsai,F,21,Raw,FR-Jr,57,57,110,117.5,-122.5,117.5,75,80,82.5,82.5,145,155,165,165,365,SBD,1,
Despina Nianiakos,F,20,Raw,FR-Jr,56.55,57,90,95,-100,95,52.5,-55,55,55,110,122.5,130,130,280,SBD,2,
Thuy Vy Pham,F,21,Raw,FR-Jr,62.2,63,137.5,145,150,150,75,80,85,85,170,177.5,-182.5,177.5,412.5,SBD,1,
Jessica Liu,F,19,Raw,FR-Jr,62.1,63,127.5,-132.5,137.5,137.5,-87.5,92.5,95,95,-127.5,132.5,137.5,137.5,370,SBD,2,
Diva Ngo,F,23,Raw,FR-Jr,61.4,63,120,125,130,130,62.5,67.5,70,70,145,155,165,165,365,SBD,3,
Thifa Samaritaan,F,21,Raw,FR-Jr,62.85,63,110,-120,120,120,-60,60,-65,60,140,150,155,155,335,SBD,4,
Wai Chi Gigi Yu,F,23,Raw,FR-Jr,62.05,63,95,102.5,-110,102.5,40,45,-50,45,110,122.5,125,125,272.5,SBD,5,
Isabelle Hemmings,F,20,Raw,FR-Jr,68.3,69,115,122.5,130,130,77.5,82.5,-85,82.5,130,142.5,150,150,362.5,SBD,1,
Adwoah Hammond,F,22,Raw,FR-Jr,83.6,84,117.5,127.5,135,135,85,90,92.5,92.5,135,152.5,165,165,392.5,SBD,1,
Rachel Noble,F,47,Raw,FR-M1,62.85,63,100,112.5,-115,112.5,55,60,-65,60,127.5,140,150,150,322.5,SBD,1,
Mary Hutchison,F,48,Raw,FR-M1,101.55,84+,125,-130,130,130,72.5,80,-85,80,120,130,135,135,345,SBD,1,
Joanna Lawrence,F,52,Raw,FR-M2,62.75,63,100,105,110,110,70,75,-77.5,75,125,132.5,137.5,137.5,322.5,SBD,1,
Anabelle D'Cruze,F,33,Raw,FR-O,51.6,52,117.5,125,-132.5,125,62.5,-67.5,70,70,142.5,155,162.5,162.5,357.5,SBD,1,
Xinyu Liang,F,30,Raw,FR-O,49.2,52,107.5,115,-120,115,62.5,65,-67.5,65,152.5,167.5,-177.5,167.5,347.5,SBD,2,
Lee-Ann Derrick,F,33,Raw,FR-O,62.95,63,140,-145,145,145,90,95,97.5,97.5,172.5,190,200,200,442.5,SBD,1,1989-03-31
Kathleen Beggs,F,33,Raw,FR-O,62.45,63,110,120,132.5,132.5,-80,85,90,90,170,180,190,190,412.5,SBD,2,
Ebony Thomas,F,26,Raw,FR-O,61.1,63,105,115,-120,115,70,80,82.5,82.5,130,140,150,150,347.5,SBD,3,
Sofya Daroy,F,35,Raw,FR-O,61.65,63,105,-110,112.5,112.5,55,57.5,-60,57.5,137.5,145,150,150,320,SBD,4,
Charlotte Nicholls,F,28,Raw,FR-O,61.25,63,92.5,-100,-102.5,92.5,55,57.5,-60,57.5,130,142.5,-150,142.5,292.5,SBD,5,
Brittany Romas,F,25,Raw,FR-O,68.8,69,-155,165,-170,165,92.5,97.5,-100,97.5,150,165,172.5,172.5,435,SBD,1,
Cindy Goulding,F,25,Raw,FR-O,67.9,69,120,130,135,135,65,72.5,-75,72.5,150,165,170,170,377.5,SBD,2,
Aisha Patel,F,23,Raw,FR-O,68.15,69,127.5,132.5,137.5,137.5,52.5,55,-57.5,55,162.5,177.5,-187.5,177.5,370,SBD,3,
Kim Szeredi,F,23,Raw,FR-O,68.95,69,90,-97.5,100,100,67.5,72.5,-77.5,72.5,120,127.5,-135,127.5,300,SBD,4,
Evangeline Mouratidis,F,27,Raw,FR-O,73.95,76,145,152.5,-157.5,152.5,75,80,82.5,82.5,162.5,177.5,182.5,182.5,417.5,SBD,1,
Emma Thomas,F,32,Raw,FR-O,74.7,76,-127.5,-135,135,135,65,-70,-72.5,65,145,152.5,-160,152.5,352.5,SBD,2,
Ashleigh Long,F,35,Raw,FR-O,73.9,76,110,117.5,122.5,122.5,77.5,-80,80,80,140,-142.5,,140,342.5,SBD,3,
Rosie Wilson,F,28,Raw,FR-O,83.95,84,120,127.5,132.5,132.5,80,85,-87.5,85,165,177.5,180,180,397.5,SBD,1,
Laura Jones #1,F,35,Raw,FR-O,83.4,84,122.5,-130,-132.5,122.5,67.5,72.5,75,75,150,162.5,170,170,367.5,SBD,2,
Alicia Wilson,F,32,Raw,FR-O,123.55,84+,155,-162.5,165,165,90,95,-100,95,160,170,180,180,440,SBD,1,
Asher Chatterton,F,24,Raw,FR-O,116.25,84+,127.5,-137.5,-145,127.5,77.5,-82.5,-82.5,77.5,140,152.5,162.5,162.5,367.5,SBD,2,
Mia Cullino,F,44,Raw,FR-M1,142.3,84+,,,,,85,90,95,95,,,,,95,B,1,
Joanna Lawrence,F,52,Raw,FR-M2,62.75,63,,,,,70,75,-77.5,75,,,,,75,B,1,
Lisa Bullock,F,56,Raw,FR-M2,94.15,84+,,,,,75,80,85,85,,,,,85,B,1,
Xavier Conquest-Hope,M,17,Raw,MR-SJ,64.7,66,150,165,-180,165,95,105,110,110,170,195,200,200,475,SBD,1,
Colin Ming,M,17,Raw,MR-SJ,61.15,66,117.5,125,130,130,82.5,85,-87.5,85,162.5,172.5,180,180,395,SBD,2,
Allan Le,M,17,Raw,MR-SJ,69.6,74,147.5,157.5,162.5,162.5,82.5,-87.5,-90,82.5,170,180,185,185,430,SBD,1,
Andy Le,M,22,Raw,MR-Jr,77.55,83,182.5,195,200,200,115,120,122.5,122.5,215,227.5,-240,227.5,550,SBD,1,
Adam Cypser,M,16,Raw,MR-SJ,78.25,83,130,140,147.5,147.5,67.5,72.5,77.5,77.5,180,195,-210,195,420,SBD,2,
Corey Jones #2,M,17,Raw,MR-SJ,75.4,83,-122.5,122.5,130,130,85,87.5,90,90,155,162.5,170,170,390,SBD,3,
Sean Pan,M,17,Raw,MR-SJ,84.9,93,177.5,187.5,195,195,147.5,152.5,157.5,157.5,205,217.5,230,230,582.5,SBD,1,
Huy Le,M,19,Raw,MR-Jr,99.25,105,165,177.5,190,190,115,127.5,-140,127.5,200,-227.5,-227.5,200,517.5,SBD,1,
Keyan Babaei-Somaghi,M,22,Raw,MR-Jr,73.6,74,220,-232.5,232.5,232.5,130,-137.5,140,140,240,255,265,265,637.5,SBD,1,
Peter Vu,M,22,Raw,MR-Jr,73.35,74,162.5,170,-175,170,102.5,110,-112.5,110,195,210,220,220,500,SBD,2,
Jordan Le,M,22,Raw,MR-Jr,73.55,74,150,160,-167.5,160,107.5,-115,-115,107.5,185,200,-210,200,467.5,SBD,3,
Dion Truong,M,23,Raw,MR-Jr,73.75,74,160,170,175,175,-95,-95,-95,,200,210,-220,210,,SBD,DQ,
Ethan Lim,M,20,Raw,MR-Jr,81.75,83,195,200,-202.5,200,130,137.5,142.5,142.5,275,-292.5,-292.5,275,617.5,SBD,1,
Luca Basile,M,20,Raw,MR-Jr,81.9,83,192.5,205,-210,205,127.5,135,-137.5,135,242.5,257.5,-270,257.5,597.5,SBD,2,
Alexander Antonopoulos,M,22,Raw,MR-Jr,82.75,83,195,-210,-210,195,-145,145,147.5,147.5,225,240,-257.5,240,582.5,SBD,3,
Harrison Sloan,M,21,Raw,MR-Jr,81,83,210,225,240,240,102.5,110,115,115,197.5,210,-220,210,565,SBD,4,
Andrew Phan,M,19,Raw,MR-Jr,76.3,83,172.5,182.5,187.5,187.5,130,135,140,140,205,-215,-215,205,532.5,SBD,5,
Richard Nguyen #2,M,22,Raw,MR-Jr,78.6,83,162.5,172.5,180,180,122.5,130,135,135,200,210,217.5,217.5,532.5,SBD,6,
Michael Xiong,M,21,Raw,MR-Jr,78.9,83,170,180,-182.5,180,90,100,-105,100,-210,225,232.5,232.5,512.5,SBD,7,
Alexander Ikanovic,M,22,Raw,MR-Jr,82.5,83,-145,152.5,160,160,117.5,125,-127.5,125,155,172.5,185,185,470,SBD,8,
Janson Trinh,M,22,Raw,MR-Jr,90.3,93,240,255,262.5,262.5,177.5,-185,185,185,270,290,305,305,752.5,SBD,1,
Christopher Feng,M,19,Raw,MR-Jr,89.5,93,185,197.5,207.5,207.5,117.5,125,-127.5,125,210,225,237.5,237.5,570,SBD,2,
Jadyn Lam,M,20,Raw,MR-Jr,87.35,93,177.5,-190,190,190,100,105,107.5,107.5,212.5,227.5,-240,227.5,525,SBD,3,
Quinn Higgs,M,21,Raw,MR-Jr,91.6,93,155,-167.5,175,175,102.5,107.5,112.5,112.5,205,-217.5,217.5,217.5,505,SBD,4,
Tommy Le,M,22,Raw,MR-Jr,102,105,190,200,210,210,-117.5,122.5,127.5,127.5,210,225,240,240,577.5,SBD,1,
Min Bae,M,21,Raw,MR-Jr,99.7,105,-200,-200,210,210,110,112.5,115,115,210,-230,,210,535,SBD,2,
Stefan Simanjuntak,M,23,Raw,MR-Jr,119.55,120,215,222.5,225,225,-152.5,152.5,-167.5,152.5,235,242.5,257.5,257.5,635,SBD,1,
Will Chester,M,22,Raw,MR-Jr,115.25,120,215,227.5,240,240,112.5,117.5,120,120,230,245,-252.5,245,605,SBD,2,
Mathew Farren,M,42,Raw,MR-M1,82.5,83,170,-180,,170,125,130,-135,130,190,-215,-215,190,490,SBD,1,
Adrian Brogan,M,49,Raw,MR-M1,80.9,83,130,-140,-140,130,140,-147.5,-147.5,140,170,190,200,200,470,SBD,2,
Konstatinos Dimitriadis,M,40,Raw,MR-M1,108.15,120,165,175,185,185,117.5,127.5,-135,127.5,172.5,-182.5,-182.5,172.5,485,SBD,1,
David Wilde,M,50,Raw,MR-M2,86.6,93,162.5,172.5,180,180,102.5,107.5,110,110,180,195,205,205,495,SBD,1,
Wayne Belcher,M,62,Raw,MR-M3,72.8,74,145,155,162.5,162.5,95,105,107.5,107.5,197.5,-212.5,-212.5,197.5,467.5,SBD,1,
Toai Trinh,M,23,Raw,MR-O,65.85,66,190,-200,-200,190,135,142.5,-145,142.5,225,240,-245,240,572.5,SBD,1,
George Alex,M,23,Raw,MR-O,72.85,74,212.5,220,225,225,132.5,137.5,140,140,235,252.5,257.5,257.5,622.5,SBD,1,
Kevin Lam,M,23,Raw,MR-O,69.85,74,190,200,-205,200,120,130,-132.5,130,205,215,222.5,222.5,552.5,SBD,2,
Gary Cheung,M,28,Raw,MR-O,73.75,74,195,205,-210,205,110,115,120,120,205,220,227.5,227.5,552.5,SBD,3,
David Wadia,M,23,Raw,MR-O,73.15,74,172.5,180,-190,180,102.5,110,115,115,210,225,240,240,535,SBD,4,
Branden Psarakis,M,24,Raw,MR-O,72.4,74,150,-162.5,-167.5,150,120,127.5,-132.5,127.5,220,235,250,250,527.5,SBD,5,
Jack Carroll,M,30,Raw,MR-O,69.85,74,105,-115,115,115,75,80,-82.5,80,120,140,157.5,157.5,352.5,SBD,6,
Kyle Conquest-Hope,M,29,Raw,MR-O,79.9,83,210,225,235,235,127.5,137.5,142.5,142.5,240,260,270,270,647.5,SBD,1,
David Vien,M,32,Raw,MR-O,80.6,83,212.5,222.5,227.5,227.5,162.5,167.5,-172.5,167.5,230,245,-255,245,640,SBD,2,
Giho Ham,M,31,Raw,MR-O,82,83,205,220,230,230,120,127.5,135,135,230,247.5,-257.5,247.5,612.5,SBD,3,
Billy Soeurream,M,26,Raw,MR-O,81.9,83,197.5,212.5,-217.5,212.5,125,132.5,140,140,232.5,250,-260,250,602.5,SBD,4,
Muhammed Jabari,M,24,Raw,MR-O,83,83,195,205,212.5,212.5,125,132.5,-135,132.5,220,240,255,255,600,SBD,5,
Eric Chau,M,23,Raw,MR-O,82.2,83,195,210,220,220,125,135,-140,135,240,-255,-255,240,595,SBD,6,
Gabriel Chenkov-Shaw,M,23,Raw,MR-O,82.85,83,200,210,-217.5,210,140,147.5,-150,147.5,230,-237.5,-237.5,230,587.5,SBD,7,
James Mangar,M,24,Raw,MR-O,80.55,83,160,172.5,182.5,182.5,107.5,115,120,120,235,255,267.5,267.5,570,SBD,8,
Bobby Shamim,M,30,Raw,MR-O,80.65,83,185,-200,200,200,125,132.5,-137.5,132.5,220,230,-240,230,562.5,SBD,9,
Jack Bruce,M,23,Raw,MR-O,81.5,83,175,185,-190,185,120,125,-130,125,220,232.5,-240,232.5,542.5,SBD,10,
Tony Nguyen #2,M,26,Raw,MR-O,93,93,235,250,265,265,-140,150,157.5,157.5,280,305,-327.5,305,727.5,SBD,1,
Padraic O'Neill,M,32,Raw,MR-O,89.9,93,175,195,205,205,145,150,155,155,250,265,280,280,640,SBD,2,
Arron Li,M,23,Raw,MR-O,90.4,93,180,192.5,200,200,135,140,142.5,142.5,222.5,237.5,250,250,592.5,SBD,3,
Ethan Mak,M,23,Raw,MR-O,90.25,93,180,190,195,195,117.5,125,-127.5,125,212.5,225,230,230,550,SBD,4,
Daniel Bani,M,23,Raw,MR-O,92.4,93,170,177.5,187.5,187.5,105,112.5,117.5,117.5,195,215,225,225,530,SBD,5,
Hugh Price,M,24,Raw,MR-O,103.8,105,225,240,-242.5,240,145,155,160,160,265,277.5,-290,277.5,677.5,SBD,1,
Callum Maynard,M,26,Raw,MR-O,117.65,120,215,230,235,235,145,-152.5,-152.5,145,245,257.5,-270,257.5,637.5,SBD,1,
Justin Penev,M,21,Raw,MR-Jr,82.45,83,,,,,157.5,165,-175,165,,,,,165,B,1,
Noah Hannibal,M,45,Raw,MR-O,119.55,120,,,,,175,177.5,-182.5,177.5,,,,,177.5,B,1,
