Place,Name,Sex,BirthDate,Equipment,Division,BodyweightKg,WeightClassKg,Squat1Kg,Squat2Kg,Squat3Kg,Best3SquatKg,Bench1Kg,Bench2Kg,Bench3Kg,Best3BenchKg,Deadlift1Kg,Deadlift2Kg,Deadlift3Kg,Best3DeadliftKg,TotalKg,Event
1,Ellen Freeborn,F,1991-08-24,Wraps,F-O,59.95,60,150,157.5,160,160,72.5,75,-77.5,75,165,175,-185,175,410,SBD
2,Georgia Westley,F,1996-08-20,Wraps,F-O,59.2,60,90,-105,105,105,55,-65,65,65,135,145,-160,145,315,SBD
1,Katie Hawes,F,1998-06-24,Raw,F-O,67.2,67.5,107.5,117.5,122.5,122.5,57.5,62.5,-65,62.5,122.5,130,137.5,137.5,322.5,SBD
2,Robyn Hickman,F,1997-02-03,Raw,F-O,67.5,67.5,-95,95,100,100,67.5,-72.5,-72.5,67.5,100,107.5,115,115,282.5,SBD
1,Holly Collins,F,1990-01-29,Raw,F-O,74.8,75,-105,-110,115,115,70,75,-80,75,140,150,155,155,345,SBD
1,Phoebe Ellis,F,1998-07-22,Wraps,F-O,80.2,82.5,115,-120,120,120,52.5,57.5,62.5,62.5,120,127.5,135,135,317.5,SBD
1,Jamie-Lee Shapcott,F,2004-03-23,Wraps,F-T3,97,100,120,127.5,130,130,50,57.5,-62.5,57.5,132.5,142.5,150,150,337.5,SBD
1,Sean George,M,1967-08-08,Wraps,M-M4,89.1,90,180,195,205,205,-120,125,130,130,200,215,225,225,560,SBD
1,Rai Garcia-Singh,M,1996-09-09,Raw,M-O,108.5,110,200,220,235,235,100,120,-140,120,240,255,-262.5,255,610,SBD
1,Mark Gilmour,M,1961-10-11,Wraps,M-M5,87.3,90,127.5,135,140,140,95,100,105,105,137.5,145,152.5,152.5,397.5,SBD
1,Kayne Reynolds,M,1998-12-08,Wraps,M-O,78.1,82.5,160,172.5,185,185,90,100,-105,100,180,195,205,205,490,SBD
2,Josh Gallaway,M,,Raw,M-O,82.5,82.5,140,152.5,162.5,162.5,110,117.5,122.5,122.5,170,192.5,-210,192.5,477.5,SBD
1,Duane Davies,M,1992-04-15,Wraps,M-O,86,90,220,232.5,242.5,242.5,130,135,140,140,227.5,240,250,250,632.5,SBD
2,Cameron Goodyer,M,1998-06-25,Wraps,M-O,89.8,90,165,185,-190,185,80,92.5,-97.5,92.5,170,190,200,200,477.5,SBD
3,Joshua Bennetts,M,1996-08-25,Wraps,M-O,89.95,90,145,150,157.5,157.5,92.5,97.5,-102.5,97.5,160,170,180,180,435,SBD
1,Bvinder Singh Barrah,M,1997-09-20,Raw,M-O,97.7,100,230,265,280,280,-190,190,-212.5,190,310,330,340,340,810,SBD
2,Mitchell Masterson,M,1993-04-20,Raw,M-O,96.6,100,225,-250,250,250,135,152.5,-160,152.5,272.5,300,310,310,712.5,SBD
3,Liam McSherry,M,,Raw,M-O,99.1,100,187.5,-197.5,-200,187.5,110,120,125,125,225,-235,-235,225,537.5,SBD
4,Marcus Pearce,M,,Wraps,M-O,96.9,100,170,190,207.5,207.5,115,-127.5,-135,115,160,185,205,205,527.5,SBD
1,Chris Hyam,M,1997-07-21,Wraps,M-O,105.3,110,310,330,340,340,185,195,-200,195,300,320,-330,320,855,SBD
2,Kane Larman,M,1994-12-20,Wraps,M-O,101.1,110,235,250,260,260,140,145,150,150,245,262.5,270,270,680,SBD
3,Aaron Matthews #3,M,,Wraps,M-O,108.6,110,170,180,185,185,115,120,-125,120,225,240,245,245,550,SBD
1,William Reed #1,M,1992-12-07,Wraps,M-O,119.5,125,210,-225,-225,210,145,-155,-155,145,230,245,-250,245,600,SBD
1,Aaron Humphreys,M,2009-08-22,Wraps,M-T1,59.5,60,110,115,120,120,62.5,67.5,72.5,72.5,117.5,125,132.5,132.5,325,SBD
1,Alex Lyons #3,M,2007-08-29,Raw,M-T1,77,82.5,130,142.5,-147.5,142.5,92.5,100,105,105,150,160,170,170,417.5,SBD
1,Dawid Galazkiewicz,M,2006-09-22,Raw,M-T2,79,82.5,140,152.5,157.5,157.5,92.5,100,-102.5,100,-180,-180,180,180,437.5,SBD
1,Danny Cartwright,M,,Raw,M-T3,77,82.5,170,170.5,180,180,105,-110,-110,105,180,190,200,200,485,SBD
1,Lewis Satherley,M,2003-06-19,Wraps,M-T3,84.5,90,165,175,-180,175,110,-117.5,-125,110,190,220,235,235,520,SBD
1,Greg Steele #1,M,1994-11-17,Raw,M-O,98.7,100,,,,,160,167.5,-172.5,167.5,,,,,167.5,B
